[
  {
    "date": "2016-01-05",
    "user_id": 1,
    "user_type": "natural",
    "type": "cash_in",
    "operation": { "amount": 200.0, "currency": "EUR" }
  },
  {
    "date": "2016-01-06",
    "user_id": 2,
    "user_type": "juridical",
    "type": "cash_out",
    "operation": { "amount": 300.0, "currency": "EUR" }
  },
  {
    "date": "2016-01-06",
    "user_id": 1,
    "user_type": "natural",
    "type": "cash_out",
    "operation": { "amount": 30000, "currency": "EUR" }
  },
  {
    "date": "2016-01-07",
    "user_id": 1,
    "user_type": "natural",
    "type": "cash_out",
    "operation": { "amount": 1000.0, "currency": "EUR" }
  },
  {
    "date": "2016-01-07",
    "user_id": 1,
    "user_type": "natural",
    "type": "cash_out",
    "operation": { "amount": 100.0, "currency": "EUR" }
  },
  {
    "date": "2016-01-10",
    "user_id": 1,
    "user_type": "natural",
    "type": "cash_out",
    "operation": { "amount": 100.0, "currency": "EUR" }
  },
  {
    "date": "2016-01-10",
    "user_id": 2,
    "user_type": "juridical",
    "type": "cash_in",
    "operation": { "amount": 1000000.0, "currency": "EUR" }
  },
  {
    "date": "2016-01-10",
    "user_id": 3,
    "user_type": "natural",
    "type": "cash_out",
    "operation": { "amount": 1000.0, "currency": "EUR" }
  },
  {
    "date": "2016-02-15",
    "user_id": 1,
    "user_type": "natural",
    "type": "cash_out",
    "operation": { "amount": 300.0, "currency": "EUR" }
  },
  {
    "date": "2016-02-16",
    "user_id": 4,
    "user_type": "juridical",
    "type": "cash_out",
    "operation": { "amount": 1, "currency": "EUR" }
  },
  {
    "date": "2016-02-16",
    "user_id": 5,
    "user_type": "natural",
    "type": "cash_out",
    "operation": { "amount": 10, "currency": "EUR" }
  },
  {
    "date": "2016-02-17",
    "user_id": 5,
    "user_type": "natural",
    "type": "cash_out",
    "operation": { "amount": 3000, "currency": "EUR" }
  }
]
